{
  "baseUrl": "http://localhost:3000/",
  "viewportWidth": 1366,
  "viewportHeight": 768,
  "requestTimeout": 20000,
  "retries": {
    "runMode": 2,
    "openMode": 0
  },
  "env": {
    "homePage_url": "/"
  },
  "reporter": "mochawesome",
  "reporterOptions": {
    "reportDir": "cypress/reports",
    "overwrite": false,
    "html": true,
    "json": true
  }
}
